test/wave_freelist.vcd
$date
	Sat Dec 11 01:36:56 2021
$end
$version
	Icarus Verilog
$end
$timescale
	1ps
$end
$scope module tb_freelist $end
$var wire 6 ! pop_data_fl_RAT2 [5:0] $end
$var wire 6 " pop_data_fl_RAT1 [5:0] $end
$var wire 1 # one_free_pr $end
$var wire 1 $ no_free_pr $end
$var reg 1 % clk $end
$var reg 2 & pop_fl_RAT [1:0] $end
$var reg 6 ' pop_reg1 [5:0] $end
$var reg 6 ( pop_reg2 [5:0] $end
$var reg 6 ) push_data_fl_RAT1 [5:0] $end
$var reg 6 * push_data_fl_RAT2 [5:0] $end
$var reg 2 + push_fl_RAT [1:0] $end
$var reg 1 , reset $end
$var integer 32 - i [31:0] $end
$scope module fl_RAT $end
$var wire 1 % clk $end
$var wire 6 . pop_data_fl_RAT1 [5:0] $end
$var wire 6 / pop_data_fl_RAT2 [5:0] $end
$var wire 2 0 pop_fl_RAT [1:0] $end
$var wire 6 1 push_data_fl_RAT1 [5:0] $end
$var wire 6 2 push_data_fl_RAT2 [5:0] $end
$var wire 2 3 push_fl_RAT [1:0] $end
$var wire 1 , reset $end
$var wire 1 4 stall_freelist_RAT $end
$var wire 1 # one_free_pr $end
$var wire 1 $ no_free_pr $end
$var reg 6 5 headp [5:0] $end
$var reg 6 6 tailp [5:0] $end
$var integer 32 7 i [31:0] $end
$upscope $end
$upscope $end
$enddefinitions $end
#0
$dumpvars
bx 7
bx 6
bx 5
z4
b0 3
bx 2
bx 1
b0 0
bx /
bx .
bx -
0,
b0 +
bx *
bx )
bx (
bx '
b0 &
0%
x$
x#
bx "
bx !
$end
#5000
1%
#10000
0%
#15000
1%
#20000
0%
1,
#25000
0$
0#
b100000 6
b100000 "
b100000 .
b100001 !
b100001 /
b0 5
b100000 7
1%
#30000
0%
#35000
b100001 (
b100000 '
b100000 7
1%
#40000
0%
0,
#45000
1%
b0 -
#46000
b10 &
b10 0
#50000
0%
#55000
1%
b1 -
#60000
0%
#65000
1%
b10 -
#70000
0%
#75000
1%
b11 -
#80000
0%
#85000
1%
b100 -
#90000
0%
#95000
1%
b101 -
#100000
0%
#105000
1%
b110 -
#110000
0%
#115000
1%
b111 -
#120000
0%
#125000
1%
b1000 -
#130000
0%
#135000
1%
b1001 -
#140000
0%
#145000
1%
b1010 -
#150000
0%
#155000
1%
b1011 -
#160000
0%
#165000
1%
b1100 -
#170000
0%
#175000
1%
b1101 -
#180000
0%
#185000
1%
b1110 -
#190000
0%
#195000
1%
b1111 -
#196000
b1 &
b1 0
#200000
0%
#205000
1%
#206000
b11 *
b11 2
b1 )
b1 1
b1 +
b1 3
b0 &
b0 0
#210000
0%
#215000
b100001 6
1%
#216000
b10 &
b10 0
b0 +
b0 3
#220000
0%
#225000
1%
#226000
b111 *
b111 2
b101 )
b101 1
b1 +
b1 3
b0 &
b0 0
#230000
0%
#235000
b100010 6
1%
#236000
b1011 *
b1011 2
b1001 )
b1001 1
b1 &
b1 0
#240000
0%
#245000
1%
b0 +
b0 3
b0 &
b0 0
